%YAML 1.1
%TAG !u! tag:unity3d.com,2011:
--- !u!1001 &6685325629293188559
PrefabInstance:
  m_ObjectHideFlags: 0
  serializedVersion: 2
  m_Modification:
    m_TransformParent: {fileID: 0}
    m_Modifications:
    - target: {fileID: 8992116289254010147, guid: 527fd20da4acedc4980b9a019a321e53,
        type: 3}
      propertyPath: m_Name
      value: Launcher_Tornade
      objectReference: {fileID: 0}
    - target: {fileID: 7628783267763505394, guid: 527fd20da4acedc4980b9a019a321e53,
        type: 3}
      propertyPath: m_LocalPosition.x
      value: 0
      objectReference: {fileID: 0}
    - target: {fileID: 7628783267763505394, guid: 527fd20da4acedc4980b9a019a321e53,
        type: 3}
      propertyPath: m_LocalPosition.y
      value: 0
      objectReference: {fileID: 0}
    - target: {fileID: 7628783267763505394, guid: 527fd20da4acedc4980b9a019a321e53,
        type: 3}
      propertyPath: m_LocalPosition.z
      value: 0
      objectReference: {fileID: 0}
    - target: {fileID: 7628783267763505394, guid: 527fd20da4acedc4980b9a019a321e53,
        type: 3}
      propertyPath: m_LocalRotation.x
      value: 0
      objectReference: {fileID: 0}
    - target: {fileID: 7628783267763505394, guid: 527fd20da4acedc4980b9a019a321e53,
        type: 3}
      propertyPath: m_LocalRotation.y
      value: 0
      objectReference: {fileID: 0}
    - target: {fileID: 7628783267763505394, guid: 527fd20da4acedc4980b9a019a321e53,
        type: 3}
      propertyPath: m_LocalRotation.z
      value: 0
      objectReference: {fileID: 0}
    - target: {fileID: 7628783267763505394, guid: 527fd20da4acedc4980b9a019a321e53,
        type: 3}
      propertyPath: m_LocalRotation.w
      value: 1
      objectReference: {fileID: 0}
    - target: {fileID: 7628783267763505394, guid: 527fd20da4acedc4980b9a019a321e53,
        type: 3}
      propertyPath: m_RootOrder
      value: 0
      objectReference: {fileID: 0}
    - target: {fileID: 7628783267763505394, guid: 527fd20da4acedc4980b9a019a321e53,
        type: 3}
      propertyPath: m_LocalEulerAnglesHint.x
      value: 0
      objectReference: {fileID: 0}
    - target: {fileID: 7628783267763505394, guid: 527fd20da4acedc4980b9a019a321e53,
        type: 3}
      propertyPath: m_LocalEulerAnglesHint.y
      value: 0
      objectReference: {fileID: 0}
    - target: {fileID: 7628783267763505394, guid: 527fd20da4acedc4980b9a019a321e53,
        type: 3}
      propertyPath: m_LocalEulerAnglesHint.z
      value: 0
      objectReference: {fileID: 0}
    - target: {fileID: 2939109549515957407, guid: 527fd20da4acedc4980b9a019a321e53,
        type: 3}
      propertyPath: m_Sprite
      value: 
      objectReference: {fileID: 21300000, guid: 8fa105813c3a7484fa30710e1d20b569,
        type: 3}
    m_RemovedComponents: []
  m_SourcePrefab: {fileID: 100100000, guid: 527fd20da4acedc4980b9a019a321e53, type: 3}
